APScheduler==3.10.4
bleach==4.1.0
django-braces==1.16.0
django-dramatiq==0.12.0
django-reversion==5.1.0
Django==4.2.16
dramatiq[redis,watch]==1.17.1
humanize==4.11.0
psycopg[binary]==3.2.1
pytz==2024.2
